(module Pad_0.5x0.4mm (layer F.Cu) (tedit 5F0382A2)
  (fp_text reference REF** (at 0 1) (layer F.SilkS)
    (effects (font (size 1 1) (thickness 0.15)))
  )
  (fp_text value Pad_0.5x0.4mm (at 0 -1) (layer F.Fab)
    (effects (font (size 1 1) (thickness 0.15)))
  )
  (pad 1 smd rect (at 0 0) (size 0.5 0.4) (layers F.Cu F.Paste F.Mask))
)
