EESchema Schematic File Version 4
EELAYER 30 0
EELAYER END
$Descr A4 11693 8268
encoding utf-8
Sheet 1 1
Title ""
Date ""
Rev ""
Comp ""
Comment1 ""
Comment2 ""
Comment3 ""
Comment4 ""
$EndDescr
$Comp
L power:GND #PWR0101
U 1 1 5EF4A122
P 5775 4250
F 0 "#PWR0101" H 5775 4000 50  0001 C CNN
F 1 "GND" H 5780 4077 50  0000 C CNN
F 2 "" H 5775 4250 50  0001 C CNN
F 3 "" H 5775 4250 50  0001 C CNN
	1    5775 4250
	1    0    0    -1  
$EndComp
$Comp
L power:GND #PWR0102
U 1 1 5EF4A421
P 7575 3275
F 0 "#PWR0102" H 7575 3025 50  0001 C CNN
F 1 "GND" H 7580 3102 50  0000 C CNN
F 2 "" H 7575 3275 50  0001 C CNN
F 3 "" H 7575 3275 50  0001 C CNN
	1    7575 3275
	1    0    0    -1  
$EndComp
Wire Wire Line
	7375 3275 7375 3150
Wire Wire Line
	7375 3150 7575 3150
Wire Wire Line
	7575 3150 7575 3275
Wire Wire Line
	5775 4250 5775 4050
Wire Wire Line
	5775 3650 5775 3475
$Comp
L Device:R_Small R3
U 1 1 5EF4C593
P 7475 3000
F 0 "R3" V 7279 3000 50  0000 C CNN
F 1 "10M" V 7370 3000 50  0000 C CNN
F 2 "Resistor_SMD:R_0603_1608Metric" H 7475 3000 50  0001 C CNN
F 3 "~" H 7475 3000 50  0001 C CNN
	1    7475 3000
	0    1    1    0   
$EndComp
$Comp
L Device:C C2
U 1 1 5EF4CCE5
P 7475 2625
F 0 "C2" V 7223 2625 50  0000 C CNN
F 1 "2.2p" V 7314 2625 50  0000 C CNN
F 2 "Capacitor_SMD:C_0603_1608Metric" H 7513 2475 50  0001 C CNN
F 3 "~" H 7475 2625 50  0001 C CNN
	1    7475 2625
	0    1    1    0   
$EndComp
$Comp
L Device:Q_NJFET_DGS Q4
U 1 1 5EF4D89A
P 8050 2125
F 0 "Q4" H 8175 1975 50  0000 L CNN
F 1 "Q_NJFET_DGS" H 7825 1800 50  0000 L CNN
F 2 "Package_TO_SOT_SMD:SOT-23" H 8250 2225 50  0001 C CNN
F 3 "~" H 8050 2125 50  0001 C CNN
	1    8050 2125
	-1   0    0    1   
$EndComp
Wire Wire Line
	7775 3575 7950 3575
Wire Wire Line
	7950 3575 7950 3000
Wire Wire Line
	7950 3000 7575 3000
Wire Wire Line
	7950 3000 7950 2625
Wire Wire Line
	7950 2625 7625 2625
Connection ~ 7950 3000
Wire Wire Line
	7950 2625 8550 2625
Connection ~ 7950 2625
Wire Wire Line
	7950 1925 7950 1850
Wire Wire Line
	7950 1850 7800 1850
Wire Wire Line
	7800 1850 7800 2125
Wire Wire Line
	7800 2375 7950 2375
Wire Wire Line
	7950 2375 7950 2325
$Comp
L Device:Q_NJFET_DGS Q3
U 1 1 5EF57022
P 7525 2125
F 0 "Q3" H 7650 1975 50  0000 L CNN
F 1 "Q_NJFET_DGS" H 7300 1800 50  0000 L CNN
F 2 "Package_TO_SOT_SMD:SOT-23" H 7725 2225 50  0001 C CNN
F 3 "~" H 7525 2125 50  0001 C CNN
	1    7525 2125
	-1   0    0    1   
$EndComp
Wire Wire Line
	7425 1925 7425 1850
Wire Wire Line
	7425 1850 7275 1850
Wire Wire Line
	7275 1850 7275 2125
Wire Wire Line
	7275 2375 7425 2375
Wire Wire Line
	7425 2375 7425 2325
$Comp
L Device:Q_NJFET_DGS Q2
U 1 1 5EF57D37
P 7000 2125
F 0 "Q2" H 7125 1975 50  0000 L CNN
F 1 "Q_NJFET_DGS" H 6775 1800 50  0000 L CNN
F 2 "Package_TO_SOT_SMD:SOT-23" H 7200 2225 50  0001 C CNN
F 3 "~" H 7000 2125 50  0001 C CNN
	1    7000 2125
	-1   0    0    1   
$EndComp
Wire Wire Line
	6900 1925 6900 1850
Wire Wire Line
	6900 1850 6750 1850
Wire Wire Line
	6750 1850 6750 2375
Wire Wire Line
	6750 2375 6900 2375
Wire Wire Line
	6900 2375 6900 2325
Wire Wire Line
	7800 2125 7725 2125
Connection ~ 7800 2125
Wire Wire Line
	7800 2125 7800 2375
Wire Wire Line
	7275 2125 7200 2125
Connection ~ 7275 2125
Wire Wire Line
	7275 2125 7275 2375
Wire Wire Line
	7325 2625 6900 2625
Wire Wire Line
	6900 2625 6900 2375
Connection ~ 6900 2375
Wire Wire Line
	7375 3000 6900 3000
Wire Wire Line
	6900 3000 6900 2625
Connection ~ 6900 2625
Wire Wire Line
	6900 3000 6900 3475
Connection ~ 6900 3000
Wire Wire Line
	6900 3475 7175 3475
$Comp
L Device:R_Small R2
U 1 1 5EF5BFED
P 7300 4300
F 0 "R2" V 7104 4300 50  0000 C CNN
F 1 "330K" V 7195 4300 50  0000 C CNN
F 2 "Resistor_SMD:R_0603_1608Metric" H 7300 4300 50  0001 C CNN
F 3 "~" H 7300 4300 50  0001 C CNN
	1    7300 4300
	0    1    1    0   
$EndComp
$Comp
L Device:R_Small R1
U 1 1 5EF5C55F
P 7075 4550
F 0 "R1" H 7016 4504 50  0000 R CNN
F 1 "22K" H 7016 4595 50  0000 R CNN
F 2 "Resistor_SMD:R_0603_1608Metric" H 7075 4550 50  0001 C CNN
F 3 "~" H 7075 4550 50  0001 C CNN
	1    7075 4550
	-1   0    0    1   
$EndComp
$Comp
L Device:C C1
U 1 1 5EF5CD02
P 6775 4600
F 0 "C1" H 6890 4646 50  0000 L CNN
F 1 "0.1u" H 6890 4555 50  0000 L CNN
F 2 "Capacitor_SMD:C_0603_1608Metric" H 6813 4450 50  0001 C CNN
F 3 "~" H 6775 4600 50  0001 C CNN
	1    6775 4600
	1    0    0    -1  
$EndComp
Wire Wire Line
	7200 4300 7075 4300
Wire Wire Line
	6775 4300 6775 4450
Connection ~ 7075 4300
Wire Wire Line
	7075 4300 7075 4450
Wire Wire Line
	7075 4300 6775 4300
Wire Wire Line
	7075 4650 7075 4875
Wire Wire Line
	7075 4875 6775 4875
Wire Wire Line
	6775 4875 6775 4750
$Comp
L power:GND #PWR0103
U 1 1 5EF60A08
P 6775 4950
F 0 "#PWR0103" H 6775 4700 50  0001 C CNN
F 1 "GND" H 6780 4777 50  0000 C CNN
F 2 "" H 6775 4950 50  0001 C CNN
F 3 "" H 6775 4950 50  0001 C CNN
	1    6775 4950
	1    0    0    -1  
$EndComp
Wire Wire Line
	6775 4950 6775 4875
Connection ~ 6775 4875
$Comp
L power:VCC #PWR0104
U 1 1 5EF6248E
P 7775 4025
F 0 "#PWR0104" H 7775 3875 50  0001 C CNN
F 1 "VCC" H 7790 4198 50  0000 C CNN
F 2 "" H 7775 4025 50  0001 C CNN
F 3 "" H 7775 4025 50  0001 C CNN
F 4 "I" H 7775 4025 50  0001 C CNN "Spice_Primitive"
F 5 "dc 3.3" H 7775 4025 50  0001 C CNN "Spice_Model"
F 6 "Y" H 7775 4025 50  0001 C CNN "Spice_Netlist_Enabled"
	1    7775 4025
	1    0    0    -1  
$EndComp
Wire Wire Line
	7075 3675 7175 3675
Wire Wire Line
	7075 3675 7075 4300
Wire Wire Line
	7375 4100 7775 4100
Wire Wire Line
	7775 4100 7775 4025
Wire Wire Line
	7775 4300 7775 4100
Wire Wire Line
	7400 4300 7775 4300
Connection ~ 7775 4100
Wire Wire Line
	7375 3875 7375 4100
$Comp
L Device:C C3
U 1 1 5EF6E0F3
P 8225 3575
F 0 "C3" V 7973 3575 50  0000 C CNN
F 1 "0.1u" V 8064 3575 50  0000 C CNN
F 2 "Capacitor_SMD:C_0603_1608Metric" H 8263 3425 50  0001 C CNN
F 3 "~" H 8225 3575 50  0001 C CNN
	1    8225 3575
	0    1    1    0   
$EndComp
Wire Wire Line
	8075 3575 7950 3575
Connection ~ 7950 3575
$Comp
L Device:R_Small R4
U 1 1 5EF6F93D
P 8475 3800
F 0 "R4" H 8416 3754 50  0000 R CNN
F 1 "5.1k" H 8416 3845 50  0000 R CNN
F 2 "Resistor_SMD:R_0603_1608Metric" H 8475 3800 50  0001 C CNN
F 3 "~" H 8475 3800 50  0001 C CNN
	1    8475 3800
	-1   0    0    1   
$EndComp
Wire Wire Line
	8475 3700 8475 3575
Wire Wire Line
	8475 3575 8375 3575
Wire Wire Line
	8475 4025 8475 3900
$Comp
L power:GND #PWR0105
U 1 1 5EF70E2F
P 8475 4025
F 0 "#PWR0105" H 8475 3775 50  0001 C CNN
F 1 "GND" H 8480 3852 50  0000 C CNN
F 2 "" H 8475 4025 50  0001 C CNN
F 3 "" H 8475 4025 50  0001 C CNN
	1    8475 4025
	1    0    0    -1  
$EndComp
$Comp
L Device:D_Schottky D1
U 1 1 5EF77A17
P 9075 4225
F 0 "D1" V 9050 4050 50  0000 L CNN
F 1 "D_Schottky" V 9150 3800 50  0000 L CNN
F 2 "Diode_SMD:D_0603_1608Metric_Pad1.05x0.95mm_HandSolder" H 9075 4225 50  0001 C CNN
F 3 "~" H 9075 4225 50  0001 C CNN
	1    9075 4225
	0    1    1    0   
$EndComp
Connection ~ 6900 3475
$Comp
L power:GND #PWR0106
U 1 1 5EF87240
P 9075 4550
F 0 "#PWR0106" H 9075 4300 50  0001 C CNN
F 1 "GND" H 9080 4377 50  0000 C CNN
F 2 "" H 9075 4550 50  0001 C CNN
F 3 "" H 9075 4550 50  0001 C CNN
	1    9075 4550
	1    0    0    -1  
$EndComp
Wire Wire Line
	9075 4550 9075 4375
Wire Wire Line
	5775 3475 6900 3475
$Comp
L Connector:TestPoint TP1
U 1 1 5EF8F6A2
P 8475 3450
F 0 "TP1" H 8533 3568 50  0000 L CNN
F 1 "S" H 8533 3477 50  0000 L CNN
F 2 "TestPoint:TestPoint_Pad_D2.0mm" H 8675 3450 50  0001 C CNN
F 3 "~" H 8675 3450 50  0001 C CNN
	1    8475 3450
	1    0    0    -1  
$EndComp
Wire Wire Line
	8475 3450 8475 3575
Connection ~ 8475 3575
$Comp
L Comparator:TLV7031DBV U2
U 1 1 5EF91C4F
P 9800 3675
F 0 "U2" H 9475 3725 50  0000 L CNN
F 1 "TLV7031DBV" H 9750 3475 50  0000 L CNN
F 2 "Package_TO_SOT_SMD:SOT-23-5" H 9700 3475 50  0001 L CNN
F 3 "https://www.ti.com/lit/ds/symlink/tlv7031.pdf" H 9800 3875 50  0001 C CNN
	1    9800 3675
	1    0    0    -1  
$EndComp
Wire Wire Line
	9075 3575 9400 3575
Wire Wire Line
	9075 3575 9075 4075
$Comp
L Device:R_Small R5
U 1 1 5EF96706
P 8775 3575
F 0 "R5" V 8971 3575 50  0000 C CNN
F 1 "5.1k" V 8880 3575 50  0000 C CNN
F 2 "Resistor_SMD:R_0603_1608Metric" H 8775 3575 50  0001 C CNN
F 3 "~" H 8775 3575 50  0001 C CNN
	1    8775 3575
	0    -1   -1   0   
$EndComp
Wire Wire Line
	8675 3575 8475 3575
Wire Wire Line
	8875 3575 9075 3575
Connection ~ 9075 3575
$Comp
L Device:R_Small R7
U 1 1 5EFA16E1
P 9625 4550
F 0 "R7" V 9429 4550 50  0000 C CNN
F 1 "680K" V 9520 4550 50  0000 C CNN
F 2 "Resistor_SMD:R_0603_1608Metric" H 9625 4550 50  0001 C CNN
F 3 "~" H 9625 4550 50  0001 C CNN
	1    9625 4550
	0    1    1    0   
$EndComp
$Comp
L Device:R_Small R6
U 1 1 5EFA16EB
P 9400 4800
F 0 "R6" H 9341 4754 50  0000 R CNN
F 1 "10k" H 9341 4845 50  0000 R CNN
F 2 "Resistor_SMD:R_0603_1608Metric" H 9400 4800 50  0001 C CNN
F 3 "~" H 9400 4800 50  0001 C CNN
	1    9400 4800
	-1   0    0    1   
$EndComp
Wire Wire Line
	9525 4550 9400 4550
Connection ~ 9400 4550
Wire Wire Line
	9400 4550 9400 4650
Wire Wire Line
	9400 4900 9400 5075
Wire Wire Line
	9400 3775 9500 3775
$Comp
L power:VCC #PWR0107
U 1 1 5EFA76A0
P 9875 4475
F 0 "#PWR0107" H 9875 4325 50  0001 C CNN
F 1 "VCC" H 9890 4648 50  0000 C CNN
F 2 "" H 9875 4475 50  0001 C CNN
F 3 "" H 9875 4475 50  0001 C CNN
F 4 "I" H 9875 4475 50  0001 C CNN "Spice_Primitive"
F 5 "dc 3.3" H 9875 4475 50  0001 C CNN "Spice_Model"
F 6 "Y" H 9875 4475 50  0001 C CNN "Spice_Netlist_Enabled"
	1    9875 4475
	1    0    0    -1  
$EndComp
Wire Wire Line
	9725 4550 9875 4550
Wire Wire Line
	9875 4550 9875 4475
$Comp
L power:GND #PWR0108
U 1 1 5EFAB37E
P 9400 5125
F 0 "#PWR0108" H 9400 4875 50  0001 C CNN
F 1 "GND" H 9405 4952 50  0000 C CNN
F 2 "" H 9400 5125 50  0001 C CNN
F 3 "" H 9400 5125 50  0001 C CNN
	1    9400 5125
	1    0    0    -1  
$EndComp
$Comp
L Device:C C4
U 1 1 5EFAB6A3
P 9700 4875
F 0 "C4" H 9585 4829 50  0000 R CNN
F 1 "0.1u" H 9585 4920 50  0000 R CNN
F 2 "Capacitor_SMD:C_0603_1608Metric" H 9738 4725 50  0001 C CNN
F 3 "~" H 9700 4875 50  0001 C CNN
	1    9700 4875
	-1   0    0    1   
$EndComp
Wire Wire Line
	9400 4650 9700 4650
Wire Wire Line
	9700 4650 9700 4725
Connection ~ 9400 4650
Wire Wire Line
	9400 4650 9400 4700
Wire Wire Line
	9400 5075 9700 5075
Wire Wire Line
	9700 5075 9700 5025
Connection ~ 9400 5075
Wire Wire Line
	9400 5075 9400 5125
$Comp
L Device:R_Small R8
U 1 1 5EFB0FA4
P 9725 3025
F 0 "R8" V 9529 3025 50  0000 C CNN
F 1 "680K" V 9620 3025 50  0000 C CNN
F 2 "Resistor_SMD:R_0603_1608Metric" H 9725 3025 50  0001 C CNN
F 3 "~" H 9725 3025 50  0001 C CNN
	1    9725 3025
	0    1    1    0   
$EndComp
Wire Wire Line
	9825 3025 10200 3025
Wire Wire Line
	10200 3025 10200 3675
Wire Wire Line
	10200 3675 10100 3675
$Comp
L power:VCC #PWR0109
U 1 1 5EFB39AC
P 9700 3300
F 0 "#PWR0109" H 9700 3150 50  0001 C CNN
F 1 "VCC" H 9715 3473 50  0000 C CNN
F 2 "" H 9700 3300 50  0001 C CNN
F 3 "" H 9700 3300 50  0001 C CNN
F 4 "I" H 9700 3300 50  0001 C CNN "Spice_Primitive"
F 5 "dc 3.3" H 9700 3300 50  0001 C CNN "Spice_Model"
F 6 "Y" H 9700 3300 50  0001 C CNN "Spice_Netlist_Enabled"
	1    9700 3300
	1    0    0    -1  
$EndComp
Wire Wire Line
	9700 3300 9700 3375
Wire Wire Line
	9625 3025 9400 3025
Wire Wire Line
	9400 3025 9400 3575
Connection ~ 9400 3575
Wire Wire Line
	9400 3575 9500 3575
$Comp
L power:GND #PWR0110
U 1 1 5EFBB15C
P 9700 4050
F 0 "#PWR0110" H 9700 3800 50  0001 C CNN
F 1 "GND" H 9705 3877 50  0000 C CNN
F 2 "" H 9700 4050 50  0001 C CNN
F 3 "" H 9700 4050 50  0001 C CNN
	1    9700 4050
	1    0    0    -1  
$EndComp
Wire Wire Line
	9400 3775 9400 4550
Wire Wire Line
	9700 4050 9700 3975
$Comp
L Connector:TestPoint TP2
U 1 1 5EFC6A70
P 10300 3575
F 0 "TP2" H 10358 3693 50  0000 L CNN
F 1 "OUT" H 10358 3602 50  0000 L CNN
F 2 "TestPoint:TestPoint_Pad_D2.0mm" H 10500 3575 50  0001 C CNN
F 3 "~" H 10500 3575 50  0001 C CNN
	1    10300 3575
	1    0    0    -1  
$EndComp
Wire Wire Line
	10200 3675 10300 3675
Wire Wire Line
	10300 3675 10300 3575
Connection ~ 10200 3675
$Comp
L Device:Laserdiode_1C2A LD1
U 1 1 5EFCF67D
P 5025 4750
F 0 "LD1" V 5021 4662 50  0000 R CNN
F 1 "OPV322" V 4930 4662 50  0000 R CNN
F 2 "Transimpeadance Amp:OPV322" H 4925 4725 50  0001 C CNN
F 3 "~" H 5055 4550 50  0001 C CNN
	1    5025 4750
	0    -1   -1   0   
$EndComp
$Comp
L Device:Q_NMOS_DGS Q5
U 1 1 5EFDBE2C
P 4925 3850
F 0 "Q5" H 5129 3896 50  0000 L CNN
F 1 "Q_NMOS_DGS" H 5129 3805 50  0000 L CNN
F 2 "Resistor_SMD:R_0603_1608Metric" H 5125 3950 50  0001 C CNN
F 3 "~" H 4925 3850 50  0001 C CNN
	1    4925 3850
	1    0    0    -1  
$EndComp
$Comp
L power:GND #PWR0111
U 1 1 5EFE58A0
P 5025 5250
F 0 "#PWR0111" H 5025 5000 50  0001 C CNN
F 1 "GND" H 5030 5077 50  0000 C CNN
F 2 "" H 5025 5250 50  0001 C CNN
F 3 "" H 5025 5250 50  0001 C CNN
	1    5025 5250
	1    0    0    -1  
$EndComp
Wire Wire Line
	5025 5250 5025 5050
$Comp
L power:VCC #PWR0112
U 1 1 5EFEA43E
P 5025 2875
F 0 "#PWR0112" H 5025 2725 50  0001 C CNN
F 1 "VCC" H 5040 3048 50  0000 C CNN
F 2 "" H 5025 2875 50  0001 C CNN
F 3 "" H 5025 2875 50  0001 C CNN
F 4 "I" H 5025 2875 50  0001 C CNN "Spice_Primitive"
F 5 "dc 3.3" H 5025 2875 50  0001 C CNN "Spice_Model"
F 6 "Y" H 5025 2875 50  0001 C CNN "Spice_Netlist_Enabled"
	1    5025 2875
	1    0    0    -1  
$EndComp
Text Notes 5125 5050 0    50   ~ 0
2.2V\n12mA
Wire Wire Line
	5025 3450 5025 3650
Text GLabel 4450 3850 0    50   Input ~ 0
PULSE
Wire Wire Line
	4450 3850 4725 3850
$Comp
L Device:R_Small R9
U 1 1 5EFF6D9A
P 5025 3350
F 0 "R9" H 4966 3304 50  0000 R CNN
F 1 "275r" H 4966 3395 50  0000 R CNN
F 2 "Resistor_SMD:R_0603_1608Metric" H 5025 3350 50  0001 C CNN
F 3 "~" H 5025 3350 50  0001 C CNN
	1    5025 3350
	-1   0    0    1   
$EndComp
Text GLabel 10575 3675 2    50   Input ~ 0
OUT
Wire Wire Line
	10300 3675 10575 3675
Connection ~ 10300 3675
$Comp
L power:VCC #PWR0113
U 1 1 5F0133E9
P 3525 1925
F 0 "#PWR0113" H 3525 1775 50  0001 C CNN
F 1 "VCC" H 3540 2098 50  0000 C CNN
F 2 "" H 3525 1925 50  0001 C CNN
F 3 "" H 3525 1925 50  0001 C CNN
F 4 "I" H 3525 1925 50  0001 C CNN "Spice_Primitive"
F 5 "dc 3.3" H 3525 1925 50  0001 C CNN "Spice_Model"
F 6 "Y" H 3525 1925 50  0001 C CNN "Spice_Netlist_Enabled"
	1    3525 1925
	1    0    0    -1  
$EndComp
$Comp
L power:GND #PWR0114
U 1 1 5F0138C3
P 3425 1925
F 0 "#PWR0114" H 3425 1675 50  0001 C CNN
F 1 "GND" H 3430 1752 50  0000 C CNN
F 2 "" H 3425 1925 50  0001 C CNN
F 3 "" H 3425 1925 50  0001 C CNN
	1    3425 1925
	-1   0    0    1   
$EndComp
Wire Wire Line
	3425 1925 3425 2150
Wire Wire Line
	3525 2150 3525 1925
$Comp
L Connector_Generic:Conn_01x04 J1
U 1 1 5F01DB8F
P 3425 2350
F 0 "J1" V 3297 2530 50  0000 L CNN
F 1 "Conn_01x04" V 3388 2530 50  0000 L CNN
F 2 "Connector_PinHeader_2.54mm:PinHeader_1x04_P2.54mm_Vertical" H 3425 2350 50  0001 C CNN
F 3 "~" H 3425 2350 50  0001 C CNN
	1    3425 2350
	0    1    1    0   
$EndComp
Text GLabel 3225 1875 1    50   Input ~ 0
PULSE
Wire Wire Line
	3325 1875 3325 2150
Text GLabel 3325 1875 1    50   Input ~ 0
OUT
Wire Wire Line
	3225 1875 3225 2150
$Comp
L Device:Q_Photo_NPN Q1
U 1 1 5EF415B3
P 5875 3850
F 0 "Q1" H 5900 3625 50  0000 R CNN
F 1 "Q_Photo_NPN" H 5900 3700 50  0000 R CNN
F 2 "Transimpeadance Amp:VBPW34FAS" H 6075 3950 50  0001 C CNN
F 3 "~" H 5875 3850 50  0001 C CNN
	1    5875 3850
	-1   0    0    1   
$EndComp
$Comp
L Amplifier_Operational:TSV911RILT U1
U 1 1 5F044351
P 7475 3575
F 0 "U1" H 7200 3525 50  0000 C CNN
F 1 "TSV911RILT" H 7625 3775 50  0000 C CNN
F 2 "Package_TO_SOT_SMD:SOT-23-5" H 7475 3575 50  0001 C CNN
F 3 "www.st.com/resource/en/datasheet/tsv911.pdf" H 7475 3775 50  0001 C CNN
	1    7475 3575
	1    0    0    1   
$EndComp
Wire Wire Line
	8550 2125 8250 2125
$Comp
L Device:R_Small R?
U 1 1 5F0A8F27
P 8550 2375
F 0 "R?" H 8609 2421 50  0000 L CNN
F 1 "0" H 8609 2330 50  0000 L CNN
F 2 "Resistor_SMD:R_0603_1608Metric" H 8550 2375 50  0001 C CNN
F 3 "~" H 8550 2375 50  0001 C CNN
	1    8550 2375
	1    0    0    -1  
$EndComp
Wire Wire Line
	8550 2275 8550 2125
Wire Wire Line
	8550 2475 8550 2625
Wire Wire Line
	5025 4550 5025 4050
Wire Wire Line
	5025 2875 5025 3250
$EndSCHEMATC
