EESchema Schematic File Version 4
EELAYER 30 0
EELAYER END
$Descr A4 11693 8268
encoding utf-8
Sheet 1 1
Title ""
Date ""
Rev ""
Comp ""
Comment1 ""
Comment2 ""
Comment3 ""
Comment4 ""
$EndDescr
Wire Wire Line
	5250 2750 5350 2750
Wire Wire Line
	5250 2650 5350 2650
$Comp
L LED:APA102-2020 D5
U 1 1 5CE6EFA5
P 4950 2750
F 0 "D5" H 4950 3231 50  0000 C CNN
F 1 "APA102-2020" H 4950 3140 50  0000 C CNN
F 2 "sprite:LED-APA102-2020" H 5000 2450 50  0001 L TNN
F 3 "http://www.led-color.com/upload/201604/APA102-2020%20SMD%20LED.pdf" H 5050 2375 50  0001 L TNN
	1    4950 2750
	1    0    0    -1  
$EndComp
$Comp
L LED:APA102-2020 D6
U 1 1 5CE6EB53
P 5650 2750
F 0 "D6" H 5650 3231 50  0000 C CNN
F 1 "APA102-2020" H 5650 3140 50  0000 C CNN
F 2 "sprite:LED-APA102-2020" H 5700 2450 50  0001 L TNN
F 3 "http://www.led-color.com/upload/201604/APA102-2020%20SMD%20LED.pdf" H 5750 2375 50  0001 L TNN
	1    5650 2750
	1    0    0    -1  
$EndComp
Wire Wire Line
	4550 2750 4650 2750
Wire Wire Line
	4550 2650 4650 2650
Wire Wire Line
	3850 2750 3950 2750
Wire Wire Line
	3850 2650 3950 2650
$Comp
L LED:APA102-2020 D3
U 1 1 5CE719F5
P 3550 2750
F 0 "D3" H 3375 2500 50  0000 C CNN
F 1 "APA102-2020" H 3550 3140 50  0000 C CNN
F 2 "sprite:LED-APA102-2020" H 3600 2450 50  0001 L TNN
F 3 "http://www.led-color.com/upload/201604/APA102-2020%20SMD%20LED.pdf" H 3650 2375 50  0001 L TNN
	1    3550 2750
	1    0    0    -1  
$EndComp
$Comp
L LED:APA102-2020 D4
U 1 1 5CE719FF
P 4250 2750
F 0 "D4" H 4075 2500 50  0000 C CNN
F 1 "APA102-2020" H 4250 3140 50  0000 C CNN
F 2 "sprite:LED-APA102-2020" H 4300 2450 50  0001 L TNN
F 3 "http://www.led-color.com/upload/201604/APA102-2020%20SMD%20LED.pdf" H 4350 2375 50  0001 L TNN
	1    4250 2750
	1    0    0    -1  
$EndComp
Wire Wire Line
	3150 2750 3250 2750
Wire Wire Line
	3150 2650 3250 2650
Wire Wire Line
	2450 2750 2550 2750
Wire Wire Line
	2450 2650 2550 2650
$Comp
L LED:APA102-2020 D1
U 1 1 5CE73BF7
P 2150 2750
F 0 "D1" H 1975 2500 50  0000 C CNN
F 1 "APA102-2020" H 2150 3140 50  0000 C CNN
F 2 "sprite:LED-APA102-2020" H 2200 2450 50  0001 L TNN
F 3 "http://www.led-color.com/upload/201604/APA102-2020%20SMD%20LED.pdf" H 2250 2375 50  0001 L TNN
	1    2150 2750
	1    0    0    -1  
$EndComp
$Comp
L LED:APA102-2020 D2
U 1 1 5CE73C01
P 2850 2750
F 0 "D2" H 2675 2500 50  0000 C CNN
F 1 "APA102-2020" H 2850 3140 50  0000 C CNN
F 2 "sprite:LED-APA102-2020" H 2900 2450 50  0001 L TNN
F 3 "http://www.led-color.com/upload/201604/APA102-2020%20SMD%20LED.pdf" H 2950 2375 50  0001 L TNN
	1    2850 2750
	1    0    0    -1  
$EndComp
$Comp
L Connector:TestPoint TP3
U 1 1 5CE75DD7
P 2150 2100
F 0 "TP3" H 2208 2218 50  0000 L CNN
F 1 "TestPoint" H 2208 2127 50  0000 L CNN
F 2 "sprite:Pad_0.5x0.4mm" H 2350 2100 50  0001 C CNN
F 3 "~" H 2350 2100 50  0001 C CNN
	1    2150 2100
	1    0    0    -1  
$EndComp
$Comp
L Connector:TestPoint TP4
U 1 1 5CE7691D
P 2150 3350
F 0 "TP4" H 2092 3376 50  0000 R CNN
F 1 "TestPoint" H 2092 3467 50  0000 R CNN
F 2 "sprite:Pad_0.5x0.4mm" H 2350 3350 50  0001 C CNN
F 3 "~" H 2350 3350 50  0001 C CNN
	1    2150 3350
	-1   0    0    1   
$EndComp
$Comp
L Connector:TestPoint TP1
U 1 1 5CE76FDC
P 1425 2475
F 0 "TP1" V 1620 2547 50  0000 C CNN
F 1 "TestPoint" V 1525 2525 50  0000 C CNN
F 2 "sprite:Pad_0.5x0.4mm" H 1625 2475 50  0001 C CNN
F 3 "~" H 1625 2475 50  0001 C CNN
	1    1425 2475
	1    0    0    -1  
$EndComp
$Comp
L Connector:TestPoint TP2
U 1 1 5CE77303
P 1425 2900
F 0 "TP2" V 1225 2900 50  0000 C CNN
F 1 "TestPoint" V 1325 2950 50  0000 C CNN
F 2 "sprite:Pad_0.5x0.4mm" H 1625 2900 50  0001 C CNN
F 3 "~" H 1625 2900 50  0001 C CNN
	1    1425 2900
	-1   0    0    1   
$EndComp
Wire Wire Line
	2150 2450 2150 2400
Wire Wire Line
	2150 3050 2150 3150
Wire Wire Line
	2150 3150 2850 3150
Wire Wire Line
	2850 3150 2850 3050
Connection ~ 2150 3150
Wire Wire Line
	2150 3150 2150 3350
Wire Wire Line
	2850 3150 3550 3150
Wire Wire Line
	3550 3150 3550 3050
Connection ~ 2850 3150
Wire Wire Line
	4250 3150 4250 3050
Connection ~ 3550 3150
Wire Wire Line
	4250 3150 4950 3150
Wire Wire Line
	4950 3150 4950 3050
Connection ~ 4250 3150
Wire Wire Line
	4950 3150 5650 3150
Wire Wire Line
	5650 3150 5650 3050
Connection ~ 4950 3150
Wire Wire Line
	2150 2400 2850 2400
Wire Wire Line
	2850 2400 2850 2450
Connection ~ 2150 2400
Wire Wire Line
	2150 2400 2150 2100
Wire Wire Line
	2850 2400 3550 2400
Wire Wire Line
	3550 2400 3550 2450
Connection ~ 2850 2400
Wire Wire Line
	3550 2400 4250 2400
Wire Wire Line
	4250 2400 4250 2450
Connection ~ 3550 2400
Wire Wire Line
	4250 2400 4950 2400
Wire Wire Line
	4950 2400 4950 2450
Connection ~ 4250 2400
Wire Wire Line
	4950 2400 5650 2400
Wire Wire Line
	5650 2400 5650 2450
Connection ~ 4950 2400
Text Label 1650 2650 0    50   ~ 0
SDI
Text Label 1650 2750 0    50   ~ 0
CKI
Text Label 2150 3150 0    50   ~ 0
GND
Text Label 2150 2200 0    50   ~ 0
VCC
Wire Wire Line
	1425 2650 1425 2475
Wire Wire Line
	1425 2650 1850 2650
Wire Wire Line
	1425 2750 1425 2900
Wire Wire Line
	1425 2750 1850 2750
$Comp
L Connector:TestPoint TP6
U 1 1 5F046217
P 6200 2500
F 0 "TP6" V 6000 2500 50  0000 C CNN
F 1 "TestPoint" V 6100 2550 50  0000 C CNN
F 2 "sprite:Pad_0.5x0.4mm" H 6400 2500 50  0001 C CNN
F 3 "~" H 6400 2500 50  0001 C CNN
	1    6200 2500
	1    0    0    -1  
$EndComp
$Comp
L Connector:TestPoint TP5
U 1 1 5F04668C
P 6200 2925
F 0 "TP5" V 6395 2997 50  0000 C CNN
F 1 "TestPoint" V 6300 2975 50  0000 C CNN
F 2 "sprite:Pad_0.5x0.4mm" H 6400 2925 50  0001 C CNN
F 3 "~" H 6400 2925 50  0001 C CNN
	1    6200 2925
	-1   0    0    1   
$EndComp
Wire Wire Line
	6200 2925 6200 2750
Wire Wire Line
	6200 2750 5950 2750
Wire Wire Line
	6200 2500 6200 2650
Wire Wire Line
	6200 2650 5950 2650
$Comp
L Connector:TestPoint TP8
U 1 1 5F047EF7
P 2850 3375
F 0 "TP8" H 2792 3401 50  0000 R CNN
F 1 "TestPoint" H 2792 3492 50  0000 R CNN
F 2 "sprite:Pad_0.5x0.4mm" H 3050 3375 50  0001 C CNN
F 3 "~" H 3050 3375 50  0001 C CNN
	1    2850 3375
	-1   0    0    1   
$EndComp
Wire Wire Line
	2850 3375 2850 3150
$Comp
L Connector:TestPoint TP7
U 1 1 5F04B5EF
P 2850 2100
F 0 "TP7" H 2908 2218 50  0000 L CNN
F 1 "TestPoint" H 2908 2127 50  0000 L CNN
F 2 "sprite:Pad_0.5x0.4mm" H 3050 2100 50  0001 C CNN
F 3 "~" H 3050 2100 50  0001 C CNN
	1    2850 2100
	1    0    0    -1  
$EndComp
Wire Wire Line
	2850 2100 2850 2400
$Comp
L Connector:TestPoint TP12
U 1 1 5F03A5B4
P 3550 3375
F 0 "TP12" H 3492 3401 50  0000 R CNN
F 1 "TestPoint" H 3492 3492 50  0000 R CNN
F 2 "sprite:Pad_0.5x0.4mm" H 3750 3375 50  0001 C CNN
F 3 "~" H 3750 3375 50  0001 C CNN
	1    3550 3375
	-1   0    0    1   
$EndComp
Wire Wire Line
	3550 3375 3550 3150
Wire Wire Line
	3550 3150 4250 3150
$Comp
L Connector:TestPoint TP11
U 1 1 5F040302
P 3550 2100
F 0 "TP11" H 3608 2218 50  0000 L CNN
F 1 "TestPoint" H 3608 2127 50  0000 L CNN
F 2 "sprite:Pad_0.5x0.4mm" H 3750 2100 50  0001 C CNN
F 3 "~" H 3750 2100 50  0001 C CNN
	1    3550 2100
	1    0    0    -1  
$EndComp
Wire Wire Line
	3550 2100 3550 2400
$Comp
L Connector:TestPoint TP9
U 1 1 5F043438
P 1000 2475
F 0 "TP9" V 1195 2547 50  0000 C CNN
F 1 "TestPoint" V 1100 2525 50  0000 C CNN
F 2 "sprite:Pad_0.5x0.4mm" H 1200 2475 50  0001 C CNN
F 3 "~" H 1200 2475 50  0001 C CNN
	1    1000 2475
	1    0    0    -1  
$EndComp
$Comp
L Connector:TestPoint TP10
U 1 1 5F043442
P 1000 2900
F 0 "TP10" V 800 2900 50  0000 C CNN
F 1 "TestPoint" V 900 2950 50  0000 C CNN
F 2 "sprite:Pad_0.5x0.4mm" H 1200 2900 50  0001 C CNN
F 3 "~" H 1200 2900 50  0001 C CNN
	1    1000 2900
	-1   0    0    1   
$EndComp
Wire Wire Line
	1000 2650 1000 2475
Wire Wire Line
	1000 2650 1425 2650
Wire Wire Line
	1000 2750 1000 2900
Wire Wire Line
	1000 2750 1425 2750
Connection ~ 1425 2650
Connection ~ 1425 2750
$Comp
L Connector:TestPoint TP13
U 1 1 5F047971
P 6450 2500
F 0 "TP13" V 6250 2500 50  0000 C CNN
F 1 "TestPoint" V 6350 2550 50  0000 C CNN
F 2 "sprite:Pad_0.5x0.4mm" H 6650 2500 50  0001 C CNN
F 3 "~" H 6650 2500 50  0001 C CNN
	1    6450 2500
	1    0    0    -1  
$EndComp
$Comp
L Connector:TestPoint TP14
U 1 1 5F04797B
P 6450 2925
F 0 "TP14" V 6645 2997 50  0000 C CNN
F 1 "TestPoint" V 6550 2975 50  0000 C CNN
F 2 "sprite:Pad_0.5x0.4mm" H 6650 2925 50  0001 C CNN
F 3 "~" H 6650 2925 50  0001 C CNN
	1    6450 2925
	-1   0    0    1   
$EndComp
Wire Wire Line
	6450 2925 6450 2750
Wire Wire Line
	6450 2750 6200 2750
Wire Wire Line
	6450 2500 6450 2650
Wire Wire Line
	6450 2650 6200 2650
Connection ~ 6200 2650
Connection ~ 6200 2750
$Comp
L Connector:TestPoint TP15
U 1 1 5F05878D
P 4250 3675
F 0 "TP15" H 4200 3900 50  0000 R CNN
F 1 "TestPoint" V 4250 4200 50  0000 R CNN
F 2 "sprite:pad_1x0.1mm" H 4450 3675 50  0001 C CNN
F 3 "~" H 4450 3675 50  0001 C CNN
	1    4250 3675
	-1   0    0    1   
$EndComp
Wire Wire Line
	4250 3150 4250 3500
$Comp
L Connector:TestPoint TP16
U 1 1 5F05D75B
P 4500 3675
F 0 "TP16" H 4450 3900 50  0000 R CNN
F 1 "TestPoint" V 4500 4200 50  0000 R CNN
F 2 "sprite:pad_1x0.1mm" H 4700 3675 50  0001 C CNN
F 3 "~" H 4700 3675 50  0001 C CNN
	1    4500 3675
	-1   0    0    1   
$EndComp
Connection ~ 4250 3500
Wire Wire Line
	4250 3500 4250 3675
Wire Wire Line
	4500 3500 4500 3675
Wire Wire Line
	4250 3500 4500 3500
$Comp
L Connector:TestPoint TP17
U 1 1 5F0612FB
P 4750 3675
F 0 "TP17" H 4700 3900 50  0000 R CNN
F 1 "TestPoint" V 4750 4200 50  0000 R CNN
F 2 "sprite:pad_1x0.1mm" H 4950 3675 50  0001 C CNN
F 3 "~" H 4950 3675 50  0001 C CNN
	1    4750 3675
	-1   0    0    1   
$EndComp
Wire Wire Line
	4750 3500 4750 3675
Wire Wire Line
	4500 3500 4750 3500
$Comp
L Connector:TestPoint TP18
U 1 1 5F062493
P 5000 3675
F 0 "TP18" H 4950 3900 50  0000 R CNN
F 1 "TestPoint" V 5000 4200 50  0000 R CNN
F 2 "sprite:pad_1x0.1mm" H 5200 3675 50  0001 C CNN
F 3 "~" H 5200 3675 50  0001 C CNN
	1    5000 3675
	-1   0    0    1   
$EndComp
Wire Wire Line
	5000 3500 5000 3675
Wire Wire Line
	4750 3500 5000 3500
$Comp
L Connector:TestPoint TP19
U 1 1 5F065B0C
P 5250 3675
F 0 "TP19" H 5200 3900 50  0000 R CNN
F 1 "TestPoint" V 5250 4200 50  0000 R CNN
F 2 "sprite:pad_1x0.1mm" H 5450 3675 50  0001 C CNN
F 3 "~" H 5450 3675 50  0001 C CNN
	1    5250 3675
	-1   0    0    1   
$EndComp
Wire Wire Line
	5250 3500 5250 3675
Wire Wire Line
	5000 3500 5250 3500
$Comp
L Connector:TestPoint TP20
U 1 1 5F065B14
P 5500 3675
F 0 "TP20" H 5450 3900 50  0000 R CNN
F 1 "TestPoint" V 5500 4200 50  0000 R CNN
F 2 "sprite:pad_1x0.1mm" H 5700 3675 50  0001 C CNN
F 3 "~" H 5700 3675 50  0001 C CNN
	1    5500 3675
	-1   0    0    1   
$EndComp
$Comp
L Connector:TestPoint TP21
U 1 1 5F065B1C
P 5750 3675
F 0 "TP21" H 5700 3900 50  0000 R CNN
F 1 "TestPoint" V 5750 4200 50  0000 R CNN
F 2 "sprite:pad_1x0.1mm" H 5950 3675 50  0001 C CNN
F 3 "~" H 5950 3675 50  0001 C CNN
	1    5750 3675
	-1   0    0    1   
$EndComp
$Comp
L Connector:TestPoint TP22
U 1 1 5F06859D
P 6000 3675
F 0 "TP22" H 5950 3900 50  0000 R CNN
F 1 "TestPoint" V 6000 4200 50  0000 R CNN
F 2 "sprite:pad_1x0.1mm" H 6200 3675 50  0001 C CNN
F 3 "~" H 6200 3675 50  0001 C CNN
	1    6000 3675
	-1   0    0    1   
$EndComp
$Comp
L Connector:TestPoint TP23
U 1 1 5F0685A5
P 6250 3675
F 0 "TP23" H 6200 3900 50  0000 R CNN
F 1 "TestPoint" V 6250 4200 50  0000 R CNN
F 2 "sprite:pad_1x0.1mm" H 6450 3675 50  0001 C CNN
F 3 "~" H 6450 3675 50  0001 C CNN
	1    6250 3675
	-1   0    0    1   
$EndComp
$Comp
L Connector:TestPoint TP24
U 1 1 5F0685AD
P 6500 3675
F 0 "TP24" H 6450 3900 50  0000 R CNN
F 1 "TestPoint" V 6500 4200 50  0000 R CNN
F 2 "sprite:pad_1x0.1mm" H 6700 3675 50  0001 C CNN
F 3 "~" H 6700 3675 50  0001 C CNN
	1    6500 3675
	-1   0    0    1   
$EndComp
Wire Wire Line
	6500 3500 6500 3675
$Comp
L Connector:TestPoint TP25
U 1 1 5F06A079
P 6750 3675
F 0 "TP25" H 6700 3900 50  0000 R CNN
F 1 "TestPoint" V 6750 4200 50  0000 R CNN
F 2 "sprite:pad_1x0.1mm" H 6950 3675 50  0001 C CNN
F 3 "~" H 6950 3675 50  0001 C CNN
	1    6750 3675
	-1   0    0    1   
$EndComp
$Comp
L Connector:TestPoint TP26
U 1 1 5F06A081
P 7000 3675
F 0 "TP26" H 6950 3900 50  0000 R CNN
F 1 "TestPoint" V 7000 4200 50  0000 R CNN
F 2 "sprite:pad_1x0.1mm" H 7200 3675 50  0001 C CNN
F 3 "~" H 7200 3675 50  0001 C CNN
	1    7000 3675
	-1   0    0    1   
$EndComp
Wire Wire Line
	7000 3500 7000 3675
$Comp
L Connector:TestPoint TP27
U 1 1 5F06A089
P 7250 3675
F 0 "TP27" H 7200 3900 50  0000 R CNN
F 1 "TestPoint" V 7250 4200 50  0000 R CNN
F 2 "sprite:pad_1x0.1mm" H 7450 3675 50  0001 C CNN
F 3 "~" H 7450 3675 50  0001 C CNN
	1    7250 3675
	-1   0    0    1   
$EndComp
Wire Wire Line
	7250 3500 7250 3675
Wire Wire Line
	7000 3500 7250 3500
$Comp
L Connector:TestPoint TP28
U 1 1 5F06D245
P 7500 3675
F 0 "TP28" H 7450 3900 50  0000 R CNN
F 1 "TestPoint" V 7500 4200 50  0000 R CNN
F 2 "sprite:pad_1x0.1mm" H 7700 3675 50  0001 C CNN
F 3 "~" H 7700 3675 50  0001 C CNN
	1    7500 3675
	-1   0    0    1   
$EndComp
Wire Wire Line
	6500 3500 7000 3500
Wire Wire Line
	6250 3500 6500 3500
Wire Wire Line
	6000 3500 6250 3500
Wire Wire Line
	6250 3500 6250 3675
Wire Wire Line
	6000 3500 6000 3675
Wire Wire Line
	5250 3500 6000 3500
$EndSCHEMATC
