EESchema Schematic File Version 4
EELAYER 30 0
EELAYER END
$Descr A4 11693 8268
encoding utf-8
Sheet 1 1
Title ""
Date ""
Rev ""
Comp ""
Comment1 ""
Comment2 ""
Comment3 ""
Comment4 ""
$EndDescr
$Comp
L Device:LED D1
U 1 1 5F0931AC
P 4725 3850
F 0 "D1" H 4718 4067 50  0000 C CNN
F 1 "LED" H 4718 3976 50  0000 C CNN
F 2 "Jolly Cogger:Side_LED" H 4725 3850 50  0001 C CNN
F 3 "~" H 4725 3850 50  0001 C CNN
	1    4725 3850
	1    0    0    -1  
$EndComp
$Comp
L Device:LED D6
U 1 1 5F09F9E1
P 4725 3375
F 0 "D6" H 4718 3592 50  0000 C CNN
F 1 "LED" H 4718 3501 50  0000 C CNN
F 2 "Jolly Cogger:Side_LED" H 4725 3375 50  0001 C CNN
F 3 "~" H 4725 3375 50  0001 C CNN
	1    4725 3375
	1    0    0    -1  
$EndComp
Wire Wire Line
	4575 3850 4525 3850
Wire Wire Line
	4900 3850 4875 3850
Wire Wire Line
	4900 3850 4900 3375
Wire Wire Line
	4900 3375 4875 3375
Wire Wire Line
	4575 3375 4525 3375
Wire Wire Line
	4525 3375 4525 3850
Wire Wire Line
	4525 5025 4600 5025
Connection ~ 4900 3850
Wire Wire Line
	4525 3850 4525 5025
Connection ~ 4525 3850
$Comp
L Device:Battery_Cell BT1
U 1 1 5F0A285C
P 4700 5025
F 0 "BT1" V 4445 5075 50  0000 C CNN
F 1 "Battery_Cell" V 4850 5050 50  0000 C CNN
F 2 "Battery:Keystone_2986" V 4700 5085 50  0001 C CNN
F 3 "~" V 4700 5085 50  0001 C CNN
	1    4700 5025
	0    1    1    0   
$EndComp
$Comp
L Switch:SW_DIP_x03 SW1
U 1 1 5F0C003D
P 5350 4175
F 0 "SW1" H 5350 3908 50  0000 C CNN
F 1 "SW_DIP_x03" H 5350 3999 50  0000 C CNN
F 2 "Jolly Cogger:CL-SB-22A-11T" H 5350 4175 50  0001 C CNN
F 3 "~" H 5350 4175 50  0001 C CNN
	1    5350 4175
	-1   0    0    1   
$EndComp
Wire Wire Line
	4900 4175 5050 4175
Wire Wire Line
	4900 3850 4900 4175
Wire Wire Line
	5050 4275 4900 4275
Wire Wire Line
	4900 4275 4900 5025
$EndSCHEMATC
