(kicad_pcb (version 20171130) (host pcbnew 5.1.5-52549c5~86~ubuntu19.04.1)

  (general
    (thickness 1.6)
    (drawings 4)
    (tracks 9)
    (zones 0)
    (modules 7)
    (nets 11)
  )

  (page A4)
  (layers
    (0 F.Cu signal)
    (31 B.Cu signal)
    (32 B.Adhes user)
    (33 F.Adhes user)
    (34 B.Paste user)
    (35 F.Paste user)
    (36 B.SilkS user)
    (37 F.SilkS user)
    (38 B.Mask user)
    (39 F.Mask user)
    (40 Dwgs.User user)
    (41 Cmts.User user hide)
    (42 Eco1.User user)
    (43 Eco2.User user)
    (44 Edge.Cuts user)
    (45 Margin user)
    (46 B.CrtYd user)
    (47 F.CrtYd user)
    (48 B.Fab user)
    (49 F.Fab user hide)
  )

  (setup
    (last_trace_width 0.2)
    (user_trace_width 0.2)
    (trace_clearance 0.2)
    (zone_clearance 0.508)
    (zone_45_only no)
    (trace_min 0.2)
    (via_size 0.8)
    (via_drill 0.4)
    (via_min_size 0.4)
    (via_min_drill 0.3)
    (uvia_size 0.3)
    (uvia_drill 0.1)
    (uvias_allowed no)
    (uvia_min_size 0.2)
    (uvia_min_drill 0.1)
    (edge_width 0.05)
    (segment_width 0.2)
    (pcb_text_width 0.3)
    (pcb_text_size 1.5 1.5)
    (mod_edge_width 0.12)
    (mod_text_size 1 1)
    (mod_text_width 0.15)
    (pad_size 1.524 1.524)
    (pad_drill 0.762)
    (pad_to_mask_clearance 0.051)
    (solder_mask_min_width 0.25)
    (aux_axis_origin 0 0)
    (visible_elements FFFFFF7F)
    (pcbplotparams
      (layerselection 0x010fc_ffffffff)
      (usegerberextensions false)
      (usegerberattributes false)
      (usegerberadvancedattributes false)
      (creategerberjobfile false)
      (excludeedgelayer true)
      (linewidth 0.100000)
      (plotframeref false)
      (viasonmask false)
      (mode 1)
      (useauxorigin false)
      (hpglpennumber 1)
      (hpglpenspeed 20)
      (hpglpendiameter 15.000000)
      (psnegative false)
      (psa4output false)
      (plotreference true)
      (plotvalue true)
      (plotinvisibletext false)
      (padsonsilk false)
      (subtractmaskfromsilk false)
      (outputformat 1)
      (mirror false)
      (drillshape 1)
      (scaleselection 1)
      (outputdirectory ""))
  )

  (net 0 "")
  (net 1 "Net-(D2-Pad6)")
  (net 2 "Net-(D2-Pad5)")
  (net 3 "Net-(D2-Pad4)")
  (net 4 "Net-(D2-Pad3)")
  (net 5 "Net-(D2-Pad2)")
  (net 6 "Net-(D2-Pad1)")
  (net 7 "Net-(D3-Pad3)")
  (net 8 "Net-(D3-Pad2)")
  (net 9 "Net-(BT1-Pad2)")
  (net 10 "Net-(BT1-Pad1)")

  (net_class Default "This is the default net class."
    (clearance 0.2)
    (trace_width 0.25)
    (via_dia 0.8)
    (via_drill 0.4)
    (uvia_dia 0.3)
    (uvia_drill 0.1)
    (add_net "Net-(BT1-Pad1)")
    (add_net "Net-(BT1-Pad2)")
    (add_net "Net-(D2-Pad1)")
    (add_net "Net-(D2-Pad2)")
    (add_net "Net-(D2-Pad3)")
    (add_net "Net-(D2-Pad4)")
    (add_net "Net-(D2-Pad5)")
    (add_net "Net-(D2-Pad6)")
    (add_net "Net-(D3-Pad2)")
    (add_net "Net-(D3-Pad3)")
    (add_net "Net-(D4-Pad2)")
    (add_net "Net-(D4-Pad3)")
  )

  (module Battery:Keystone_2986 (layer F.Cu) (tedit 5F0A1D21) (tstamp 5F0A57D2)
    (at 173.1 103.6 90)
    (descr "Keystone 2985 5.8mm coin cell battery clip")
    (tags "keystone, battery, coin, cell")
    (path /5F0A285C)
    (fp_text reference BT1 (at 0 4.15 90) (layer F.SilkS)
      (effects (font (size 1 1) (thickness 0.15)))
    )
    (fp_text value Battery_Cell (at 0 -4.45 90) (layer F.Fab)
      (effects (font (size 1 1) (thickness 0.15)))
    )
    (pad 1 smd rect (at 3.85 0 180) (size 3.5 1.35) (layers F.Cu F.Paste F.Mask)
      (net 10 "Net-(BT1-Pad1)"))
    (pad 1 smd rect (at -3.85 0 180) (size 3.5 1.35) (layers F.Cu F.Paste F.Mask)
      (net 10 "Net-(BT1-Pad1)"))
    (pad 2 smd rect (at 0 0 90) (size 3.17 3.17) (layers F.Cu F.Paste F.Mask)
      (net 9 "Net-(BT1-Pad2)"))
  )

  (module "Jolly Cogger:Side_LED" (layer F.Cu) (tedit 5F09F237) (tstamp 5F09F155)
    (at 173.06 96.34)
    (descr "Interally edge lit LED")
    (tags led,diode)
    (path /5F09F9E1)
    (attr smd)
    (fp_text reference D6 (at 0 1 90) (layer F.SilkS)
      (effects (font (size 1 1) (thickness 0.15)))
    )
    (fp_text value LED (at 0 -1) (layer F.SilkS)
      (effects (font (size 1 1) (thickness 0.15)))
    )
    (fp_circle (center 0 0) (end 1.15 0) (layer Edge.Cuts) (width 0.01))
    (fp_text user %R (at 0 1) (layer F.Fab)
      (effects (font (size 1 1) (thickness 0.15)))
    )
    (fp_text user "EDIT PAD NUMBERS" (at 0 -2) (layer Cmts.User)
      (effects (font (size 1 1) (thickness 0.2) italic))
    )
    (pad 2 thru_hole oval (at 1.35 0 180) (size 1.2 0.8) (drill oval 1 0.504) (layers *.Cu)
      (net 10 "Net-(BT1-Pad1)"))
    (pad 1 thru_hole oval (at -1.35 0 180) (size 1.2 0.8) (drill oval 1 0.504) (layers *.Cu)
      (net 9 "Net-(BT1-Pad2)"))
  )

  (module "Jolly Cogger:Side_LED" (layer F.Cu) (tedit 5F09F237) (tstamp 5F097113)
    (at 173.06 111.44 90)
    (descr "Interally edge lit LED")
    (tags led,diode)
    (path /5F0931AC)
    (attr smd)
    (fp_text reference D1 (at 0 2.26 90) (layer F.SilkS)
      (effects (font (size 1 1) (thickness 0.15)))
    )
    (fp_text value LED (at 0 -1.94 90) (layer F.SilkS)
      (effects (font (size 1 1) (thickness 0.15)))
    )
    (fp_circle (center 0 0) (end 1.15 0) (layer Edge.Cuts) (width 0.01))
    (fp_text user %R (at 0 1 90) (layer F.Fab)
      (effects (font (size 1 1) (thickness 0.15)))
    )
    (fp_text user "EDIT PAD NUMBERS" (at 0 -2 90) (layer Cmts.User)
      (effects (font (size 1 1) (thickness 0.2) italic))
    )
    (pad 2 thru_hole oval (at 1.35 0 270) (size 1.2 0.8) (drill oval 1 0.504) (layers *.Cu)
      (net 10 "Net-(BT1-Pad1)"))
    (pad 1 thru_hole oval (at -1.35 0 270) (size 1.2 0.8) (drill oval 1 0.504) (layers *.Cu)
      (net 9 "Net-(BT1-Pad2)"))
  )

  (module Connector_PinHeader_1.00mm:PinHeader_1x04_P1.00mm_Horizontal (layer F.Cu) (tedit 59FED737) (tstamp 5F097619)
    (at 185.25 109 270)
    (descr "Through hole angled pin header, 1x04, 1.00mm pitch, 2.0mm pin length, single row")
    (tags "Through hole angled pin header THT 1x04 1.00mm single row")
    (path /5F096820)
    (fp_text reference J1 (at 1.375 -1.5 90) (layer F.SilkS)
      (effects (font (size 1 1) (thickness 0.15)))
    )
    (fp_text value Conn_01x04 (at 1.375 4.5 90) (layer F.Fab)
      (effects (font (size 1 1) (thickness 0.15)))
    )
    (fp_text user %R (at 0.75 1.5 90) (layer F.Fab)
      (effects (font (size 0.6 0.6) (thickness 0.09)))
    )
    (fp_line (start 3.75 -1) (end -1 -1) (layer F.CrtYd) (width 0.05))
    (fp_line (start 3.75 4) (end 3.75 -1) (layer F.CrtYd) (width 0.05))
    (fp_line (start -1 4) (end 3.75 4) (layer F.CrtYd) (width 0.05))
    (fp_line (start -1 -1) (end -1 4) (layer F.CrtYd) (width 0.05))
    (fp_line (start -0.685 -0.685) (end 0 -0.685) (layer F.SilkS) (width 0.12))
    (fp_line (start -0.685 0) (end -0.685 -0.685) (layer F.SilkS) (width 0.12))
    (fp_line (start 3.31 3.21) (end 1.31 3.21) (layer F.SilkS) (width 0.12))
    (fp_line (start 3.31 2.79) (end 3.31 3.21) (layer F.SilkS) (width 0.12))
    (fp_line (start 1.31 2.79) (end 3.31 2.79) (layer F.SilkS) (width 0.12))
    (fp_line (start 0.468215 2.5) (end 1.31 2.5) (layer F.SilkS) (width 0.12))
    (fp_line (start 3.31 2.21) (end 1.31 2.21) (layer F.SilkS) (width 0.12))
    (fp_line (start 3.31 1.79) (end 3.31 2.21) (layer F.SilkS) (width 0.12))
    (fp_line (start 1.31 1.79) (end 3.31 1.79) (layer F.SilkS) (width 0.12))
    (fp_line (start 0.468215 1.5) (end 1.31 1.5) (layer F.SilkS) (width 0.12))
    (fp_line (start 3.31 1.21) (end 1.31 1.21) (layer F.SilkS) (width 0.12))
    (fp_line (start 3.31 0.79) (end 3.31 1.21) (layer F.SilkS) (width 0.12))
    (fp_line (start 1.31 0.79) (end 3.31 0.79) (layer F.SilkS) (width 0.12))
    (fp_line (start 0.685 0.5) (end 1.31 0.5) (layer F.SilkS) (width 0.12))
    (fp_line (start 1.31 0.09) (end 3.31 0.09) (layer F.SilkS) (width 0.12))
    (fp_line (start 1.31 -0.03) (end 3.31 -0.03) (layer F.SilkS) (width 0.12))
    (fp_line (start 1.31 -0.15) (end 3.31 -0.15) (layer F.SilkS) (width 0.12))
    (fp_line (start 3.31 0.21) (end 1.31 0.21) (layer F.SilkS) (width 0.12))
    (fp_line (start 3.31 -0.21) (end 3.31 0.21) (layer F.SilkS) (width 0.12))
    (fp_line (start 1.31 -0.21) (end 3.31 -0.21) (layer F.SilkS) (width 0.12))
    (fp_line (start 1.31 3.56) (end 0.394493 3.56) (layer F.SilkS) (width 0.12))
    (fp_line (start 1.31 -0.56) (end 1.31 3.56) (layer F.SilkS) (width 0.12))
    (fp_line (start 0.685 -0.56) (end 1.31 -0.56) (layer F.SilkS) (width 0.12))
    (fp_line (start 1.25 3.15) (end 3.25 3.15) (layer F.Fab) (width 0.1))
    (fp_line (start 3.25 2.85) (end 3.25 3.15) (layer F.Fab) (width 0.1))
    (fp_line (start 1.25 2.85) (end 3.25 2.85) (layer F.Fab) (width 0.1))
    (fp_line (start -0.15 3.15) (end 0.25 3.15) (layer F.Fab) (width 0.1))
    (fp_line (start -0.15 2.85) (end -0.15 3.15) (layer F.Fab) (width 0.1))
    (fp_line (start -0.15 2.85) (end 0.25 2.85) (layer F.Fab) (width 0.1))
    (fp_line (start 1.25 2.15) (end 3.25 2.15) (layer F.Fab) (width 0.1))
    (fp_line (start 3.25 1.85) (end 3.25 2.15) (layer F.Fab) (width 0.1))
    (fp_line (start 1.25 1.85) (end 3.25 1.85) (layer F.Fab) (width 0.1))
    (fp_line (start -0.15 2.15) (end 0.25 2.15) (layer F.Fab) (width 0.1))
    (fp_line (start -0.15 1.85) (end -0.15 2.15) (layer F.Fab) (width 0.1))
    (fp_line (start -0.15 1.85) (end 0.25 1.85) (layer F.Fab) (width 0.1))
    (fp_line (start 1.25 1.15) (end 3.25 1.15) (layer F.Fab) (width 0.1))
    (fp_line (start 3.25 0.85) (end 3.25 1.15) (layer F.Fab) (width 0.1))
    (fp_line (start 1.25 0.85) (end 3.25 0.85) (layer F.Fab) (width 0.1))
    (fp_line (start -0.15 1.15) (end 0.25 1.15) (layer F.Fab) (width 0.1))
    (fp_line (start -0.15 0.85) (end -0.15 1.15) (layer F.Fab) (width 0.1))
    (fp_line (start -0.15 0.85) (end 0.25 0.85) (layer F.Fab) (width 0.1))
    (fp_line (start 1.25 0.15) (end 3.25 0.15) (layer F.Fab) (width 0.1))
    (fp_line (start 3.25 -0.15) (end 3.25 0.15) (layer F.Fab) (width 0.1))
    (fp_line (start 1.25 -0.15) (end 3.25 -0.15) (layer F.Fab) (width 0.1))
    (fp_line (start -0.15 0.15) (end 0.25 0.15) (layer F.Fab) (width 0.1))
    (fp_line (start -0.15 -0.15) (end -0.15 0.15) (layer F.Fab) (width 0.1))
    (fp_line (start -0.15 -0.15) (end 0.25 -0.15) (layer F.Fab) (width 0.1))
    (fp_line (start 0.25 -0.25) (end 0.5 -0.5) (layer F.Fab) (width 0.1))
    (fp_line (start 0.25 3.5) (end 0.25 -0.25) (layer F.Fab) (width 0.1))
    (fp_line (start 1.25 3.5) (end 0.25 3.5) (layer F.Fab) (width 0.1))
    (fp_line (start 1.25 -0.5) (end 1.25 3.5) (layer F.Fab) (width 0.1))
    (fp_line (start 0.5 -0.5) (end 1.25 -0.5) (layer F.Fab) (width 0.1))
    (pad 4 thru_hole oval (at 0 3 270) (size 0.85 0.85) (drill 0.5) (layers *.Cu *.Mask)
      (net 6 "Net-(D2-Pad1)"))
    (pad 3 thru_hole oval (at 0 2 270) (size 0.85 0.85) (drill 0.5) (layers *.Cu *.Mask)
      (net 3 "Net-(D2-Pad4)"))
    (pad 2 thru_hole oval (at 0 1 270) (size 0.85 0.85) (drill 0.5) (layers *.Cu *.Mask)
      (net 2 "Net-(D2-Pad5)"))
    (pad 1 thru_hole rect (at 0 0 270) (size 0.85 0.85) (drill 0.5) (layers *.Cu *.Mask)
      (net 1 "Net-(D2-Pad6)"))
    (model ${KISYS3DMOD}/Connector_PinHeader_1.00mm.3dshapes/PinHeader_1x04_P1.00mm_Horizontal.wrl
      (at (xyz 0 0 0))
      (scale (xyz 1 1 1))
      (rotate (xyz 0 0 0))
    )
  )

  (module "Jolly Cogger:APA102-2020-sidemount" (layer F.Cu) (tedit 5F09387C) (tstamp 5F0973FA)
    (at 183.807388 103)
    (path /5F093A03)
    (fp_text reference D4 (at 0 -1.9) (layer F.SilkS)
      (effects (font (size 1 1) (thickness 0.15)))
    )
    (fp_text value APA102-2020 (at 0 -5) (layer F.Fab)
      (effects (font (size 1 1) (thickness 0.15)))
    )
    (pad 6 smd rect (at 0.8 -0.7) (size 0.3 0.5) (layers B.Cu B.Paste B.Mask)
      (net 1 "Net-(D2-Pad6)"))
    (pad 5 smd rect (at 0 -0.7) (size 0.3 0.5) (layers B.Cu B.Paste B.Mask)
      (net 8 "Net-(D3-Pad2)"))
    (pad 4 smd rect (at -0.8 -0.7) (size 0.3 0.5) (layers B.Cu B.Paste B.Mask)
      (net 7 "Net-(D3-Pad3)"))
    (pad 3 smd rect (at -0.8 -0.7) (size 0.3 0.5) (layers F.Cu F.Paste F.Mask))
    (pad 2 smd rect (at 0 -0.7) (size 0.3 0.5) (layers F.Cu F.Paste F.Mask))
    (pad 1 smd rect (at 0.8 -0.7) (size 0.3 0.5) (layers F.Cu F.Paste F.Mask)
      (net 6 "Net-(D2-Pad1)"))
    (pad "" np_thru_hole oval (at 0 0) (size 2.7 0.95) (drill oval 2.7 0.95) (layers *.Cu *.Mask))
  )

  (module "Jolly Cogger:APA102-2020-sidemount" (layer F.Cu) (tedit 5F09387C) (tstamp 5F097A9A)
    (at 182 106 120)
    (path /5F09403F)
    (fp_text reference D3 (at -0.102628 -2.022243 120) (layer F.SilkS)
      (effects (font (size 1 1) (thickness 0.15)))
    )
    (fp_text value APA102-2020 (at 0 -5 120) (layer F.Fab)
      (effects (font (size 1 1) (thickness 0.15)))
    )
    (pad 6 smd rect (at 0.8 -0.7 120) (size 0.3 0.5) (layers B.Cu B.Paste B.Mask)
      (net 1 "Net-(D2-Pad6)"))
    (pad 5 smd rect (at 0 -0.7 120) (size 0.3 0.5) (layers B.Cu B.Paste B.Mask)
      (net 5 "Net-(D2-Pad2)"))
    (pad 4 smd rect (at -0.8 -0.7 120) (size 0.3 0.5) (layers B.Cu B.Paste B.Mask)
      (net 4 "Net-(D2-Pad3)"))
    (pad 3 smd rect (at -0.8 -0.7 120) (size 0.3 0.5) (layers F.Cu F.Paste F.Mask)
      (net 7 "Net-(D3-Pad3)"))
    (pad 2 smd rect (at 0 -0.7 120) (size 0.3 0.5) (layers F.Cu F.Paste F.Mask)
      (net 8 "Net-(D3-Pad2)"))
    (pad 1 smd rect (at 0.8 -0.7 120) (size 0.3 0.5) (layers F.Cu F.Paste F.Mask)
      (net 6 "Net-(D2-Pad1)"))
    (pad "" np_thru_hole oval (at 0 0 120) (size 2.7 0.95) (drill oval 2.7 0.95) (layers *.Cu *.Mask))
  )

  (module "Jolly Cogger:APA102-2020-sidemount" (layer F.Cu) (tedit 5F09387C) (tstamp 5F097B2D)
    (at 186 106 240)
    (path /5F094A2B)
    (fp_text reference D2 (at 0.102628 -2.022243 60) (layer F.SilkS)
      (effects (font (size 1 1) (thickness 0.15)))
    )
    (fp_text value APA102-2020 (at 0 -5 60) (layer F.Fab)
      (effects (font (size 1 1) (thickness 0.15)))
    )
    (pad 6 smd rect (at 0.8 -0.7 240) (size 0.3 0.5) (layers B.Cu B.Paste B.Mask)
      (net 1 "Net-(D2-Pad6)"))
    (pad 5 smd rect (at 0 -0.7 240) (size 0.3 0.5) (layers B.Cu B.Paste B.Mask)
      (net 2 "Net-(D2-Pad5)"))
    (pad 4 smd rect (at -0.8 -0.7 240) (size 0.3 0.5) (layers B.Cu B.Paste B.Mask)
      (net 3 "Net-(D2-Pad4)"))
    (pad 3 smd rect (at -0.8 -0.7 240) (size 0.3 0.5) (layers F.Cu F.Paste F.Mask)
      (net 4 "Net-(D2-Pad3)"))
    (pad 2 smd rect (at 0 -0.7 240) (size 0.3 0.5) (layers F.Cu F.Paste F.Mask)
      (net 5 "Net-(D2-Pad2)"))
    (pad 1 smd rect (at 0.8 -0.7 240) (size 0.3 0.5) (layers F.Cu F.Paste F.Mask)
      (net 6 "Net-(D2-Pad1)"))
    (pad "" np_thru_hole oval (at 0 0 240) (size 2.7 0.95) (drill oval 2.7 0.95) (layers *.Cu *.Mask))
  )

  (gr_line (start 170 113) (end 170 94) (layer Edge.Cuts) (width 0.05) (tstamp 5F0A4D0E))
  (gr_line (start 188 113) (end 170 113) (layer Edge.Cuts) (width 0.05))
  (gr_line (start 188 94) (end 188 113) (layer Edge.Cuts) (width 0.05))
  (gr_line (start 170 94) (end 188 94) (layer Edge.Cuts) (width 0.05))

  (segment (start 186.206218 107.368782) (end 186.206218 107.242884) (width 0.25) (layer B.Cu) (net 1))
  (segment (start 185.25 109) (end 185.25 108.325) (width 0.25) (layer B.Cu) (net 1))
  (segment (start 185.25 108.325) (end 186.206218 107.368782) (width 0.25) (layer B.Cu) (net 1))
  (segment (start 184.398961 109.750001) (end 185.935001 109.750001) (width 0.25) (layer B.Cu) (net 2))
  (segment (start 184.25 109) (end 184.25 109.60104) (width 0.25) (layer B.Cu) (net 2))
  (segment (start 185.935001 109.750001) (end 186.92 108.765002) (width 0.25) (layer B.Cu) (net 2))
  (segment (start 184.25 109.60104) (end 184.398961 109.750001) (width 0.25) (layer B.Cu) (net 2))
  (segment (start 186.92 108.765002) (end 186.92 108.38) (width 0.25) (layer B.Cu) (net 2))
  (segment (start 173.06 112.79) (end 173.06 114.14) (width 0.2) (layer F.Cu) (net 9))

)
