EESchema Schematic File Version 4
EELAYER 30 0
EELAYER END
$Descr A4 11693 8268
encoding utf-8
Sheet 1 1
Title ""
Date ""
Rev ""
Comp ""
Comment1 ""
Comment2 ""
Comment3 ""
Comment4 ""
$EndDescr
$Comp
L Device:LED D1
U 1 1 5F0931AC
P 4725 3850
F 0 "D1" H 4718 4067 50  0000 C CNN
F 1 "LED" H 4718 3976 50  0000 C CNN
F 2 "Jolly Cogger:Side_LED" H 4725 3850 50  0001 C CNN
F 3 "~" H 4725 3850 50  0001 C CNN
	1    4725 3850
	1    0    0    -1  
$EndComp
$Comp
L LED:APA102-2020 D4
U 1 1 5F093A03
P 2875 3775
F 0 "D4" H 2875 4256 50  0000 C CNN
F 1 "APA102-2020" H 2875 4165 50  0000 C CNN
F 2 "Jolly Cogger:APA102-2020-sidemount" H 2925 3475 50  0001 L TNN
F 3 "http://www.led-color.com/upload/201604/APA102-2020%20SMD%20LED.pdf" H 2975 3400 50  0001 L TNN
	1    2875 3775
	1    0    0    -1  
$EndComp
$Comp
L LED:APA102-2020 D3
U 1 1 5F09403F
P 2150 3775
F 0 "D3" H 2150 4256 50  0000 C CNN
F 1 "APA102-2020" H 2150 4165 50  0000 C CNN
F 2 "Jolly Cogger:APA102-2020-sidemount" H 2200 3475 50  0001 L TNN
F 3 "http://www.led-color.com/upload/201604/APA102-2020%20SMD%20LED.pdf" H 2250 3400 50  0001 L TNN
	1    2150 3775
	1    0    0    -1  
$EndComp
$Comp
L LED:APA102-2020 D2
U 1 1 5F094A2B
P 1400 3775
F 0 "D2" H 1400 4256 50  0000 C CNN
F 1 "APA102-2020" H 1400 4165 50  0000 C CNN
F 2 "Jolly Cogger:APA102-2020-sidemount" H 1450 3475 50  0001 L TNN
F 3 "http://www.led-color.com/upload/201604/APA102-2020%20SMD%20LED.pdf" H 1500 3400 50  0001 L TNN
	1    1400 3775
	1    0    0    -1  
$EndComp
$Comp
L Connector_Generic:Conn_01x04 J1
U 1 1 5F096820
P 725 3775
F 0 "J1" H 643 3350 50  0000 C CNN
F 1 "Conn_01x04" H 643 3441 50  0000 C CNN
F 2 "Connector_PinHeader_1.00mm:PinHeader_1x04_P1.00mm_Horizontal" H 725 3775 50  0001 C CNN
F 3 "~" H 725 3775 50  0001 C CNN
	1    725  3775
	-1   0    0    1   
$EndComp
Wire Wire Line
	925  3675 1100 3675
Wire Wire Line
	925  3775 1100 3775
Wire Wire Line
	925  3875 1000 3875
Wire Wire Line
	925  3575 1075 3575
Wire Wire Line
	1075 3575 1075 3425
Wire Wire Line
	1075 3425 1400 3425
Wire Wire Line
	2875 3425 2875 3475
Wire Wire Line
	1700 3675 1850 3675
Wire Wire Line
	1850 3775 1700 3775
Wire Wire Line
	2450 3675 2575 3675
Wire Wire Line
	2450 3775 2575 3775
Wire Wire Line
	1400 3475 1400 3425
Connection ~ 1400 3425
Wire Wire Line
	1400 3425 2150 3425
Wire Wire Line
	2150 3475 2150 3425
Connection ~ 2150 3425
Wire Wire Line
	2150 3425 2875 3425
Wire Wire Line
	1000 3875 1000 4175
Wire Wire Line
	1000 4175 1400 4175
Wire Wire Line
	2875 4175 2875 4075
Wire Wire Line
	2150 4175 2150 4075
Connection ~ 2150 4175
Wire Wire Line
	2150 4175 2875 4175
Wire Wire Line
	1400 4075 1400 4175
Connection ~ 1400 4175
Wire Wire Line
	1400 4175 2150 4175
$Comp
L Device:LED D6
U 1 1 5F09F9E1
P 4725 3375
F 0 "D6" H 4718 3592 50  0000 C CNN
F 1 "LED" H 4718 3501 50  0000 C CNN
F 2 "Jolly Cogger:Side_LED" H 4725 3375 50  0001 C CNN
F 3 "~" H 4725 3375 50  0001 C CNN
	1    4725 3375
	1    0    0    -1  
$EndComp
$Comp
L Device:Battery_Cell BT1
U 1 1 5F0A285C
P 4700 4400
F 0 "BT1" V 4445 4450 50  0000 C CNN
F 1 "Battery_Cell" V 4536 4450 50  0000 C CNN
F 2 "Battery:Keystone_2986" V 4700 4460 50  0001 C CNN
F 3 "~" V 4700 4460 50  0001 C CNN
	1    4700 4400
	0    1    1    0   
$EndComp
Wire Wire Line
	4575 3850 4525 3850
Wire Wire Line
	4900 4450 4900 4400
Wire Wire Line
	4900 4400 4900 3850
Wire Wire Line
	4900 3850 4875 3850
Connection ~ 4900 4400
Wire Wire Line
	4900 3850 4900 3375
Wire Wire Line
	4900 3375 4875 3375
Connection ~ 4900 3850
Wire Wire Line
	4575 3375 4525 3375
Wire Wire Line
	4525 3375 4525 3850
Connection ~ 4525 3850
Wire Wire Line
	4525 3850 4525 4400
Wire Wire Line
	4525 4400 4600 4400
$EndSCHEMATC
